{
    "Primary": {
        "Unphased": [
            {
                "DCode": "D2331",
                "LocationType": "tooth+surface",
                "ProcedureName": "2 Surface Ant. Composite"
            },
            {
                "DCode": "D5511",
                "LocationType": "arch",
                "ProcedureName": "Repair broken complete denture base - Mandibular"
            },
            {
                "DCode": "D5140",
                "LocationType": "arch",
                "ProcedureName": "Complete Immediate Mandibular Denture"
            },
            {
                "DCode": "D5511",
                "LocationType": "arch",
                "ProcedureName": "Repair broken complete denture base - Mandibular"
            },
            {
                "DCode": "D1354",
                "LocationType": "tooth",
                "ProcedureName": "Interim Caries Arresting Medication Application"
            },
            {
                "DCode": "D5741",
                "LocationType": "arch",
                "ProcedureName": "Reline mandibular partial denture - chairside"
            },
            {
                "DCode": "D0384",
                "LocationType": "N/A",
                "ProcedureName": "Cone Beam CT - Multiple Exposures - no interpretation"
            },
            {
                "DCode": "D5740",
                "LocationType": "arch",
                "ProcedureName": "Reline maxillary partial denture - chairside"
            },
            {
                "DCode": "D5760",
                "LocationType": "arch",
                "ProcedureName": "Reline maxillary partial denture - laboratory"
            },
            {
                "DCode": "D5130",
                "LocationType": "arch",
                "ProcedureName": "Complete Immediate Maxillary Denture"
            },
            {
                "DCode": "D1120",
                "LocationType": "N/A",
                "ProcedureName": "Child Prophy"
            }
        ]
    }
}
