{
    "Primary": {
        "Unphased": [
            {
                "DCode": "D0120",
                "LocationType": "N/A",
                "ProcedureName": "Periodic Exam"
            },
            {
                "DCode": "D6710",
                "LocationType": "tooth",
                "ProcedureName": "Retainer crown – indirect resin based composite"
            },
            {
                "DCode": "D5811",
                "LocationType": "arch",
                "ProcedureName": "Complete Interim Mandibular Denture"
            },
            {
                "DCode": "D2930",
                "LocationType": "tooth",
                "ProcedureName": "Prefab SS Crown"
            },
            {
                "DCode": "D2750",
                "LocationType": "tooth",
                "ProcedureName": "PFM Crown"
            },
            {
                "DCode": "D1351",
                "LocationType": "tooth",
                "ProcedureName": "Sealant"
            },
            {
                "DCode": "D6210",
                "LocationType": "tooth",
                "ProcedureName": "Pontic - cast high noble metal"
            },
            {
                "DCode": "D5511",
                "LocationType": "arch",
                "ProcedureName": "Repair broken complete denture base - Mandibular"
            },
            {
                "DCode": "D2332",
                "LocationType": "tooth+surface",
                "ProcedureName": "3 Surface Ant. Composite"
            }
        ]
    }
}
