{
    "Primary": {
        "Unphased": [
            {
                "DCode": "D5214",
                "LocationType": "arch",
                "ProcedureName": "Mandibular RPD - Cast metal frame"
            },
            {
                "DCode": "D0180",
                "LocationType": "N/A",
                "ProcedureName": "Comprehensive Periodontal Exam"
            },
            {
                "DCode": "D5741",
                "LocationType": "arch",
                "ProcedureName": "Reline mandibular partial denture - chairside"
            },
            {
                "DCode": "D6245",
                "LocationType": "tooth",
                "ProcedureName": "Pontic - porcelain/ceramic"
            },
            {
                "DCode": "D5140",
                "LocationType": "arch",
                "ProcedureName": "Complete Immediate Mandibular Denture"
            }
        ]
    }
}
