{
    "Primary": {
        "Unphased": [
            {
                "DCode": "D9110",
                "LocationType": "tooth",
                "ProcedureName": "Palliative treatment"
            },
            {
                "DCode": "D6710",
                "LocationType": "tooth",
                "ProcedureName": "Retainer crown – indirect resin based composite"
            },
            {
                "DCode": "D7921",
                "LocationType": "tooth",
                "ProcedureName": "Collection And Application Of Autologous Blood Concentrate Product"
            },
            {
                "DCode": "D5821",
                "LocationType": "arch",
                "ProcedureName": "Mandibular RPD - Interim"
            },
            {
                "DCode": "D5751",
                "LocationType": "arch",
                "ProcedureName": "Reline complete mandibular denture - laboratory"
            },
            {
                "DCode": "D1206",
                "LocationType": "N/A",
                "ProcedureName": "Fluoride Varnish"
            },
            {
                "DCode": "D2161",
                "LocationType": "tooth+surface",
                "ProcedureName": "4+ Surface Amalgam"
            },
            {
                "DCode": "D0340",
                "LocationType": "N/A",
                "ProcedureName": "2D Cephalometric Radiograph"
            },
            {
                "DCode": "D6062",
                "LocationType": "tooth",
                "ProcedureName": "Cast Metal - High Noble Metal – Implant"
            },
            {
                "DCode": "D1510",
                "LocationType": "tooth",
                "ProcedureName": "Space Maintainer - Fixed / Unilateral"
            },
            {
                "DCode": "CDELT",
                "LocationType": "N/A",
                "ProcedureName": "Electric Toothbrush"
            },
            {
                "DCode": "D6056",
                "LocationType": "tooth",
                "ProcedureName": "Prefabricated implant abutment"
            },
            {
                "DCode": "D7111",
                "LocationType": "tooth",
                "ProcedureName": "Pediatric Rootless Extraction"
            },
            {
                "DCode": "D2740",
                "LocationType": "tooth",
                "ProcedureName": "Porcelain/Zirconia Crown"
            }
        ]
    }
}
