{
    "Primary": {
        "Unphased": [
            {
                "DCode": "D3320",
                "LocationType": "tooth",
                "ProcedureName": "Premolar RCT"
            },
            {
                "DCode": "D5140",
                "LocationType": "arch",
                "ProcedureName": "Complete Immediate Mandibular Denture"
            }
        ]
    }
}
