{
    "Primary": {
        "Unphased": [
            {
                "DCode": "D9975",
                "LocationType": "tooth",
                "ProcedureName": "External bleaching for home application, per arch"
            },
            {
                "DCode": "D5140",
                "LocationType": "arch",
                "ProcedureName": "Complete Immediate Mandibular Denture"
            },
            {
                "DCode": "D9230",
                "LocationType": "N/A",
                "ProcedureName": "Analgesia, anxiolysis, inhalation of nitrous oxide"
            },
            {
                "DCode": "D9110",
                "LocationType": "tooth",
                "ProcedureName": "Palliative treatment"
            },
            {
                "DCode": "D7111",
                "LocationType": "tooth",
                "ProcedureName": "Pediatric Rootless Extraction"
            },
            {
                "DCode": "D5760",
                "LocationType": "arch",
                "ProcedureName": "Reline maxillary partial denture - laboratory"
            },
            {
                "DCode": "CDPRT",
                "LocationType": "N/A",
                "ProcedureName": "Premium Toothbrush"
            },
            {
                "DCode": "D1206",
                "LocationType": "N/A",
                "ProcedureName": "Fluoride Varnish"
            },
            {
                "DCode": "D2952",
                "LocationType": "tooth",
                "ProcedureName": "Cast Post and Core"
            },
            {
                "DCode": "D4342",
                "LocationType": "quad",
                "ProcedureName": "Scaling & Root Planing 1-3 Teeth"
            },
            {
                "DCode": "D0367",
                "LocationType": "N/A",
                "ProcedureName": "Cone Beam CT - Both Arches"
            },
            {
                "DCode": "D1510",
                "LocationType": "tooth",
                "ProcedureName": "Space Maintainer - Fixed / Unilateral"
            },
            {
                "DCode": "D6058",
                "LocationType": "tooth",
                "ProcedureName": "All porcelain or ceramic – Implant"
            },
            {
                "DCode": "D5226",
                "LocationType": "arch",
                "ProcedureName": "Mandibular RPD - Flexible"
            },
            {
                "DCode": "D6058",
                "LocationType": "tooth",
                "ProcedureName": "All porcelain or ceramic – Implant"
            }
        ]
    }
}
