{
    "Primary": {
        "Unphased": [
            {
                "DCode": "D0367",
                "LocationType": "N/A",
                "ProcedureName": "Cone Beam CT - Both Arches"
            },
            {
                "DCode": "D3320",
                "LocationType": "tooth",
                "ProcedureName": "Premolar RCT"
            },
            {
                "DCode": "D3320",
                "LocationType": "tooth",
                "ProcedureName": "Premolar RCT"
            },
            {
                "DCode": "D9940",
                "LocationType": "arch",
                "ProcedureName": "Occlusal Mouthguard"
            },
            {
                "DCode": "D7140",
                "LocationType": "tooth",
                "ProcedureName": "Regular Extraction"
            },
            {
                "DCode": "D2952",
                "LocationType": "tooth",
                "ProcedureName": "Cast Post and Core"
            },
            {
                "DCode": "D5750",
                "LocationType": "arch",
                "ProcedureName": "Reline complete maxillary denture - laboratory"
            },
            {
                "DCode": "D5226",
                "LocationType": "arch",
                "ProcedureName": "Mandibular RPD - Flexible"
            },
            {
                "DCode": "D0220",
                "LocationType": "tooth",
                "ProcedureName": "First Periapical"
            },
            {
                "DCode": "D0272",
                "LocationType": "N/A",
                "ProcedureName": "Two Bitewings"
            },
            {
                "DCode": "D0180",
                "LocationType": "N/A",
                "ProcedureName": "Comprehensive Periodontal Exam"
            },
            {
                "DCode": "D5741",
                "LocationType": "arch",
                "ProcedureName": "Reline mandibular partial denture - chairside"
            },
            {
                "DCode": "D1354",
                "LocationType": "tooth",
                "ProcedureName": "Interim Caries Arresting Medication Application"
            },
            {
                "DCode": "D5821",
                "LocationType": "arch",
                "ProcedureName": "Mandibular RPD - Interim"
            },
            {
                "DCode": "D6240",
                "LocationType": "tooth",
                "ProcedureName": "Pontic - porcelain fused to high noble metal"
            },
            {
                "DCode": "D1110",
                "LocationType": "N/A",
                "ProcedureName": "Adult Prophy"
            },
            {
                "DCode": "D6057",
                "LocationType": "tooth",
                "ProcedureName": "Custom implant abutment"
            },
            {
                "DCode": "D5750",
                "LocationType": "arch",
                "ProcedureName": "Reline complete maxillary denture - laboratory"
            },
            {
                "DCode": "CDPFU",
                "LocationType": "N/A",
                "ProcedureName": "Periodontal Followup"
            },
            {
                "DCode": "D5140",
                "LocationType": "arch",
                "ProcedureName": "Complete Immediate Mandibular Denture"
            }
        ]
    }
}
