{
    "Primary": {
        "Unphased": [
            {
                "DCode": "D2954",
                "LocationType": "tooth",
                "ProcedureName": "Pre-fab Post and Core"
            },
            {
                "DCode": "D6057",
                "LocationType": "tooth",
                "ProcedureName": "Custom implant abutment"
            },
            {
                "DCode": "D0140",
                "LocationType": "N/A",
                "ProcedureName": "Limited Exam"
            },
            {
                "DCode": "D5120",
                "LocationType": "arch",
                "ProcedureName": "Complete Mandibular Denture"
            },
            {
                "DCode": "D2150",
                "LocationType": "tooth+surface",
                "ProcedureName": "2 Surface Amalgam"
            },
            {
                "DCode": "D6740",
                "LocationType": "tooth",
                "ProcedureName": "Retainer crown – porcelain/ceramic"
            },
            {
                "DCode": "D5214",
                "LocationType": "arch",
                "ProcedureName": "Mandibular RPD - Cast metal frame"
            },
            {
                "DCode": "CDPFU",
                "LocationType": "N/A",
                "ProcedureName": "Periodontal Followup"
            },
            {
                "DCode": "D1399",
                "LocationType": "arch",
                "ProcedureName": "Preventive Mouthguard"
            }
        ]
    }
}
