{
    "Primary": {
        "Unphased": [
            {
                "DCode": "D9975",
                "LocationType": "tooth",
                "ProcedureName": "External bleaching for home application, per arch"
            },
            {
                "DCode": "D5212",
                "LocationType": "arch",
                "ProcedureName": "Mandibular RPD - resin"
            },
            {
                "DCode": "D2160",
                "LocationType": "tooth+surface",
                "ProcedureName": "3 Surface Amalgam"
            },
            {
                "DCode": "D5751",
                "LocationType": "arch",
                "ProcedureName": "Reline complete mandibular denture - laboratory"
            },
            {
                "DCode": "D1351",
                "LocationType": "tooth",
                "ProcedureName": "Sealant"
            },
            {
                "DCode": "D6253",
                "LocationType": "tooth",
                "ProcedureName": "Provisional pontic"
            },
            {
                "DCode": "D2930",
                "LocationType": "tooth",
                "ProcedureName": "Prefab SS Crown"
            },
            {
                "DCode": "CDPFU",
                "LocationType": "N/A",
                "ProcedureName": "Periodontal Followup"
            },
            {
                "DCode": "D6245",
                "LocationType": "tooth",
                "ProcedureName": "Pontic - porcelain/ceramic"
            },
            {
                "DCode": "D5730",
                "LocationType": "arch",
                "ProcedureName": "Reline complete maxillary denture - chairside"
            },
            {
                "DCode": "D5110",
                "LocationType": "arch",
                "ProcedureName": "Complete Maxillary Denture"
            }
        ]
    }
}
